{
	"_id": "SCP01",
	"name": "CSS",
	"description": "CSS For Beginners",
	"price": 2000,
	"isActive": false,
	"slots": "20",
	"enrollees": ["LMS01","LMS02"]
}

{
	"_id": "SCP02",
	"name": "HTML",
	"description": "HTML For Beginners",
	"price": 3000,
	"isActive": true,
	"slots": "25",
	"enrollees": ["LMS01","LMS02"]
}

{
	"_id": "SCP03",
	"name": "JavaScript",
	"description": "JavaScript For Beginners",
	"price": 3500,
	"isActive": true,
	"slots": "25",
	"enrollees": ["LMS02"]
}
